{"_id":{"$oid":"5e16c4b912227545c46901d4"},"title":"11","image":"15786584525331578635339815web-design-facts-you-never-thought-about-2.jpg","created_at":{"$date":{"$numberLong":"1578550457264"}},"updated_at":{"$date":{"$numberLong":"1578658452539"}}}
{"_id":{"$oid":"5e16f1e818587947102b3517"},"title":"12","image":"15786584646771578635939572websitedesignyorkclient.jpg","created_at":{"$date":{"$numberLong":"1578562024253"}},"updated_at":{"$date":{"$numberLong":"1578658464680"}}}
{"_id":{"$oid":"5e180fa79872250910cb42de"},"title":"13","image":"15786584718991578635348365March-12-Letter.jpg","created_at":{"$date":{"$numberLong":"1578635175221"}},"updated_at":{"$date":{"$numberLong":"1578658471901"}}}
{"_id":{"$oid":"5e18d0a1868ba4278c298b8c"},"title":"14","image":"157868457759319.jpg","created_at":{"$date":{"$numberLong":"1578684577633"}},"updated_at":{"$date":{"$numberLong":"1578684577633"}}}
{"_id":{"$oid":"5e1a1f586dfe902fc09d200d"},"title":"15","image":"157877026443618.jpeg","created_at":{"$date":{"$numberLong":"1578770264445"}},"updated_at":{"$date":{"$numberLong":"1578770264445"}}}
